{
  "blocks": {
    "autocomplete": []
  },
  "path": {
    "src": {
      "srcPath": "./src/",
      "blocksDirName": "blocks",
      "style": [
        "src/style/app.scss"
      ],
      "html": [
        "src/template/**/*.pug",
        "!src/template/**/_*.pug"
      ],
      "script": "app.js",
      "image": [
        "src/img/**/*.*",
        "!src/img/svgIcons/*.svg"
      ],
      "fonts": "src/fonts/**/*.*",
      "svgIcons": "src/img/svgIcons/*.svg"
    },
    "dist": {
      "style": "dist/assets/css/",
      "html": "dist/",
      "script": "dist/assets/js/",
      "image": "dist/assets/img/",
      "fonts": "dist/assets/fonts/",
      "svgIcons": "dist/assets/img/"
    },
    "watch": {
      "style": [
        "src/style/**/*.scss",
        "src/blocks/**/*.scss"
      ],
      "html": [
        "src/template/**/*.pug",
        "src/blocks/**/*.pug"
      ],
      "script": "src/js/app.js",
      "image": "src/img/**/*.*",
      "fonts": "src/fonts/**/*.*",
      "blocks": "./projectConfig.json",
      "svgIcons": "src/img/svgIcons/*.svg"
    }
  }
}